…
#### Include your answer

I was able to conclude that the statement given that 69 avengers had
died at least one time is true. This was done by checking the count of
the value “Yes” in the ‘Death1’ column of av.

### Ananya Ramji

``` r
deaths
```

    ## # A tibble: 865 × 18
    ##    URL                Name.Alias Appearances Current. Gender Probationary.Introl
    ##    <chr>              <chr>            <int> <chr>    <chr>  <chr>              
    ##  1 http://marvel.wik… "Henry Jo…        1269 YES      MALE   ""                 
    ##  2 http://marvel.wik… "Henry Jo…        1269 YES      MALE   ""                 
    ##  3 http://marvel.wik… "Henry Jo…        1269 YES      MALE   ""                 
    ##  4 http://marvel.wik… "Henry Jo…        1269 YES      MALE   ""                 
    ##  5 http://marvel.wik… "Henry Jo…        1269 YES      MALE   ""                 
    ##  6 http://marvel.wik… "Janet va…        1165 YES      FEMALE ""                 
    ##  7 http://marvel.wik… "Janet va…        1165 YES      FEMALE ""                 
    ##  8 http://marvel.wik… "Janet va…        1165 YES      FEMALE ""                 
    ##  9 http://marvel.wik… "Janet va…        1165 YES      FEMALE ""                 
    ## 10 http://marvel.wik… "Janet va…        1165 YES      FEMALE ""                 
    ## # ℹ 855 more rows
    ## # ℹ 12 more variables: Full.Reserve.Avengers.Intro <chr>, Year <int>,
    ## #   Years.since.joining <int>, Honorary <chr>, Return1 <chr>, Return2 <chr>,
    ## #   Return3 <chr>, Return4 <chr>, Return5 <chr>, Notes <chr>, Death <chr>,
    ## #   Time <dbl>

``` r
returns
```

    ## # A tibble: 865 × 18
    ##    URL                Name.Alias Appearances Current. Gender Probationary.Introl
    ##    <chr>              <chr>            <int> <chr>    <chr>  <chr>              
    ##  1 http://marvel.wik… "Henry Jo…        1269 YES      MALE   ""                 
    ##  2 http://marvel.wik… "Henry Jo…        1269 YES      MALE   ""                 
    ##  3 http://marvel.wik… "Henry Jo…        1269 YES      MALE   ""                 
    ##  4 http://marvel.wik… "Henry Jo…        1269 YES      MALE   ""                 
    ##  5 http://marvel.wik… "Henry Jo…        1269 YES      MALE   ""                 
    ##  6 http://marvel.wik… "Janet va…        1165 YES      FEMALE ""                 
    ##  7 http://marvel.wik… "Janet va…        1165 YES      FEMALE ""                 
    ##  8 http://marvel.wik… "Janet va…        1165 YES      FEMALE ""                 
    ##  9 http://marvel.wik… "Janet va…        1165 YES      FEMALE ""                 
    ## 10 http://marvel.wik… "Janet va…        1165 YES      FEMALE ""                 
    ## # ℹ 855 more rows
    ## # ℹ 12 more variables: Full.Reserve.Avengers.Intro <chr>, Year <int>,
    ## #   Years.since.joining <int>, Honorary <chr>, Death1 <chr>, Death2 <chr>,
    ## #   Death3 <chr>, Death4 <chr>, Death5 <chr>, Notes <chr>, Return <chr>,
    ## #   Time <dbl>
…
